benches/spi_bus/01_rcv/bench.vcd
$date
	Sun Jan 17 17:44:30 2016
$end
$version
	Icarus Verilog
$end
$timescale
	1s
$end
$scope module testbench $end
$var wire 1 ! MISO $end
$var wire 1 " WA $end
$var wire 8 # MSG [7:0] $end
$var reg 1 $ MOSI $end
$var reg 1 % SCK $end
$var reg 1 & SSEL $end
$var reg 1 ' a $end
$var reg 1 ( b $end
$var reg 16 ) msg [15:0] $end
$var reg 1 * tb_clk $end
$scope module spi1 $end
$var wire 1 * CLK $end
$var wire 1 ! MISO $end
$var wire 1 $ MOSI $end
$var wire 8 + MSG [7:0] $end
$var wire 1 % SCK $end
$var wire 1 & SSEL $end
$var wire 1 , SSEL_active $end
$var wire 1 - SCK_risingedge $end
$var wire 1 . MOSI_data $end
$var reg 2 / MOSIr [1:0] $end
$var reg 3 0 SCKr [2:0] $end
$var reg 3 1 SSELr [2:0] $end
$var reg 4 2 bitcnt [3:0] $end
$var reg 1 3 is_msg_received $end
$var reg 8 4 msg_data_received [7:0] $end
$upscope $end
$upscope $end
$enddefinitions $end
#0
$dumpvars
b0 4
03
b0 2
b0 1
b0 0
b0 /
0.
0-
1,
b0 +
0*
b1110001101010101 )
z(
z'
1&
0%
0$
b0 #
z"
0!
$end
#1
b1 1
1*
#2
0*
#3
0,
b11 1
1*
#4
0*
#5
b111 1
1*
#6
0*
#7
1*
#8
0*
#9
1*
#10
0*
#11
1*
#12
0*
#13
1*
#14
0*
#15
1*
#16
0*
#17
1*
#18
0*
#19
1*
#20
0*
#21
1*
#22
0*
#23
1*
#24
0*
#25
1*
#26
0*
#27
1*
#28
0*
#29
1*
#30
0*
#31
1*
#32
0*
#33
1*
#34
0*
#35
1*
#36
0*
#37
1*
#38
0*
#39
1*
#40
0*
#41
1*
#42
0*
#43
1*
#44
0*
#45
1*
#46
0*
#47
1*
#48
0*
#49
1*
#50
0*
#51
1*
#52
0*
#53
1*
#54
0*
#55
1*
#56
0*
#57
1*
#58
0*
#59
1*
#60
0*
#61
1*
#62
0*
#63
1*
#64
0*
#65
1*
#66
0*
#67
1*
#68
0*
#69
1*
#70
0*
#71
1*
#72
0*
#73
1*
#74
0*
#75
1*
#76
0*
#77
1*
#78
0*
#79
1*
#80
0*
#81
1*
#82
0*
#83
1*
#84
0*
#85
1*
#86
0*
#87
1*
#88
0*
#89
1*
#90
0*
#91
1*
#92
0*
#93
1*
#94
0*
#95
1*
#96
0*
#97
1*
#98
0*
#99
1*
#100
0*
1"
1'
0&
#101
b110 1
1*
#102
0*
#103
1,
b100 1
1*
#104
0*
#105
b0 1
1*
#106
0*
#107
1*
#108
0*
#109
1*
#110
0*
1%
b1100011010101010 )
1$
#111
b1 /
b1 0
1*
#112
0*
#113
1-
1.
b11 0
b11 /
1*
#114
0*
#115
0-
b1 #
b1 +
b1 4
b1 2
b111 0
1*
#116
0*
#117
1*
#118
0*
#119
1*
#120
0*
0%
#121
b110 0
1*
#122
0*
#123
b100 0
1*
#124
0*
#125
b0 0
1*
#126
0*
#127
1*
#128
0*
#129
1*
#130
0*
1%
b1000110101010100 )
#131
b1 0
1*
#132
0*
#133
1-
b11 0
1*
#134
0*
#135
0-
b11 #
b11 +
b11 4
b10 2
b111 0
1*
#136
0*
#137
1*
#138
0*
#139
1*
#140
0*
0%
#141
b110 0
1*
#142
0*
#143
b100 0
1*
#144
0*
#145
b0 0
1*
#146
0*
#147
1*
#148
0*
#149
1*
#150
0*
1%
b1101010101000 )
#151
b1 0
1*
#152
0*
#153
1-
b11 0
1*
#154
0*
#155
0-
b111 #
b111 +
b111 4
b11 2
b111 0
1*
#156
0*
#157
1*
#158
0*
#159
1*
#160
0*
0%
#161
b110 0
1*
#162
0*
#163
b100 0
1*
#164
0*
#165
b0 0
1*
#166
0*
#167
1*
#168
0*
#169
1*
#170
0*
1%
b11010101010000 )
0$
#171
b10 /
b1 0
1*
#172
0*
#173
1-
0.
b11 0
b0 /
1*
#174
0*
#175
0-
b1110 #
b1110 +
b1110 4
b100 2
b111 0
1*
#176
0*
#177
1*
#178
0*
#179
1*
#180
0*
0%
#181
b110 0
1*
#182
0*
#183
b100 0
1*
#184
0*
#185
b0 0
1*
#186
0*
#187
1*
#188
0*
#189
1*
#190
0*
1%
b110101010100000 )
#191
b1 0
1*
#192
0*
#193
1-
b11 0
1*
#194
0*
#195
0-
b11100 #
b11100 +
b11100 4
b101 2
b111 0
1*
#196
0*
#197
1*
#198
0*
#199
1*
#200
0*
0%
z"
z'
#201
b110 0
1*
#202
0*
#203
b100 0
1*
#204
0*
#205
b0 0
1*
#206
0*
#207
1*
#208
0*
#209
1*
#210
0*
1%
b1101010101000000 )
#211
b1 0
1*
#212
0*
#213
1-
b11 0
1*
#214
0*
#215
0-
b111000 #
b111000 +
b111000 4
b110 2
b111 0
1*
#216
0*
#217
1*
#218
0*
#219
1*
#220
0*
0%
#221
b110 0
1*
#222
0*
#223
b100 0
1*
#224
0*
#225
b0 0
1*
#226
0*
#227
1*
#228
0*
#229
1*
#230
0*
1%
b1010101010000000 )
1$
#231
b1 /
b1 0
1*
#232
0*
#233
1-
1.
b11 0
b11 /
1*
#234
0*
#235
0-
b1110001 #
b1110001 +
b1110001 4
b111 2
b111 0
1*
#236
0*
#237
1*
#238
0*
#239
1*
#240
0*
0%
#241
b110 0
1*
#242
0*
#243
b100 0
1*
#244
0*
#245
b0 0
1*
#246
0*
#247
1*
#248
0*
#249
1*
#250
0*
1%
b101010100000000 )
#251
b1 0
1*
#252
0*
#253
1-
b11 0
1*
#254
0*
#255
0-
13
b11100011 #
b11100011 +
b11100011 4
b1000 2
b111 0
1*
#256
0*
#257
03
1*
#258
0*
#259
1*
#260
0*
0%
#261
b110 0
1*
#262
0*
#263
b100 0
1*
#264
0*
#265
b0 0
1*
#266
0*
#267
1*
#268
0*
#269
1*
#270
0*
1%
b1010101000000000 )
0$
#271
b10 /
b1 0
1*
#272
0*
#273
1-
0.
b11 0
b0 /
1*
#274
0*
#275
0-
b1001 2
b111 0
1*
#276
0*
#277
1*
#278
0*
#279
1*
#280
0*
0%
#281
b110 0
1*
#282
0*
#283
b100 0
1*
#284
0*
#285
b0 0
1*
#286
0*
#287
1*
#288
0*
#289
1*
#290
0*
1%
b101010000000000 )
1$
#291
b1 /
b1 0
1*
#292
0*
#293
1-
1.
b11 0
b11 /
1*
#294
0*
#295
0-
b1010 2
b111 0
1*
#296
0*
#297
1*
#298
0*
#299
1*
#300
0*
0%
1"
1(
#301
b110 0
1*
#302
0*
#303
b100 0
1*
#304
0*
#305
b0 0
1*
#306
0*
#307
1*
#308
0*
#309
1*
#310
0*
1%
b1010100000000000 )
0$
#311
b10 /
b1 0
1*
#312
0*
#313
1-
0.
b11 0
b0 /
1*
#314
0*
#315
0-
b1011 2
b111 0
1*
#316
0*
#317
1*
#318
0*
#319
1*
#320
0*
0%
#321
b110 0
1*
#322
0*
#323
b100 0
1*
#324
0*
#325
b0 0
1*
#326
0*
#327
1*
#328
0*
#329
1*
#330
0*
1%
b101000000000000 )
1$
#331
b1 /
b1 0
1*
#332
0*
#333
1-
1.
b11 0
b11 /
1*
#334
0*
#335
0-
b1100 2
b111 0
1*
#336
0*
#337
1*
#338
0*
#339
1*
#340
0*
0%
#341
b110 0
1*
#342
0*
#343
b100 0
1*
#344
0*
#345
b0 0
1*
#346
0*
#347
1*
#348
0*
#349
1*
#350
0*
1%
b1010000000000000 )
0$
#351
b10 /
b1 0
1*
#352
0*
#353
1-
0.
b11 0
b0 /
1*
#354
0*
#355
0-
b1101 2
b111 0
1*
#356
0*
#357
1*
#358
0*
#359
1*
#360
0*
0%
#361
b110 0
1*
#362
0*
#363
b100 0
1*
#364
0*
#365
b0 0
1*
#366
0*
#367
1*
#368
0*
#369
1*
#370
0*
1%
b100000000000000 )
1$
#371
b1 /
b1 0
1*
#372
0*
#373
1-
1.
b11 0
b11 /
1*
#374
0*
#375
0-
b1110 2
b111 0
1*
#376
0*
#377
1*
#378
0*
#379
1*
#380
0*
0%
#381
b110 0
1*
#382
0*
#383
b100 0
1*
#384
0*
#385
b0 0
1*
#386
0*
#387
1*
#388
0*
#389
1*
#390
0*
1%
b1000000000000000 )
0$
#391
b10 /
b1 0
1*
#392
0*
#393
1-
0.
b11 0
b0 /
1*
#394
0*
#395
0-
b1111 2
b111 0
1*
#396
0*
#397
1*
#398
0*
#399
1*
#400
0*
0%
z"
z(
#401
b110 0
1*
#402
0*
#403
b100 0
1*
#404
0*
#405
b0 0
1*
#406
0*
#407
1*
#408
0*
#409
1*
#410
0*
1%
b0 )
1$
#411
b1 /
b1 0
1*
#412
0*
#413
1-
1.
b11 0
b11 /
1*
#414
0*
#415
0-
b0 2
b111 0
1*
#416
0*
#417
1*
#418
0*
#419
1*
#420
0*
1&
0%
#421
b110 0
b1 1
1*
#422
0*
#423
0,
b11 1
b100 0
1*
#424
0*
#425
b0 0
b111 1
1*
