benches/clock/bench.vcd
$date
	Sun Jan 24 01:16:40 2016
$end
$version
	Icarus Verilog
$end
$timescale
	1s
$end
$scope module testbench $end
$var reg 1 ! tb_clk $end
$scope module timer $end
$var wire 1 ! clk $end
$var wire 1 " divided_clk_posedge $end
$var wire 1 # led_gnd2 $end
$var wire 1 $ led_second_tick $end
$var wire 1 % m_en $end
$var wire 7 & s_mm [6:0] $end
$var wire 7 ' s_m [6:0] $end
$var wire 7 ( s_hh [6:0] $end
$var wire 7 ) s_h [6:0] $end
$var wire 1 * mm_cy $end
$var wire 4 + mm [3:0] $end
$var wire 1 , m_cy $end
$var wire 4 - m [3:0] $end
$var wire 1 . led_gnd1 $end
$var wire 1 / led9 $end
$var wire 1 0 led8 $end
$var wire 1 1 led7 $end
$var wire 1 2 led6 $end
$var wire 1 3 led21 $end
$var wire 1 4 led20 $end
$var wire 1 5 led19 $end
$var wire 1 6 led18 $end
$var wire 1 7 led17 $end
$var wire 1 8 led16 $end
$var wire 1 9 led15 $end
$var wire 1 : led13 $end
$var wire 1 ; led12 $end
$var wire 1 < led10 $end
$var wire 1 = hh_cy $end
$var wire 4 > hh [3:0] $end
$var wire 1 ? h_show $end
$var wire 1 @ h_cy $end
$var wire 4 A h [3:0] $end
$var wire 1 B g4 $end
$var wire 1 C g3 $end
$var wire 1 D g2 $end
$var wire 1 E g1 $end
$var wire 1 F f4 $end
$var wire 1 G f3 $end
$var wire 1 H f2 $end
$var wire 1 I f1 $end
$var wire 1 J e4 $end
$var wire 1 K e3 $end
$var wire 1 L e2 $end
$var wire 1 M e1 $end
$var wire 1 N divided_clk $end
$var wire 1 O d4 $end
$var wire 1 P d3 $end
$var wire 1 Q d2 $end
$var wire 1 R d1 $end
$var wire 1 S c4 $end
$var wire 1 T c3 $end
$var wire 1 U c2 $end
$var wire 1 V c1 $end
$var wire 1 W b4 $end
$var wire 1 X b3 $end
$var wire 1 Y b2 $end
$var wire 1 Z b1 $end
$var wire 1 [ a4 $end
$var wire 1 \ a3 $end
$var wire 1 ] a2 $end
$var wire 1 ^ a1 $end
$var reg 15 _ clk_div [14:0] $end
$var reg 1 ` divided_clk_prev $end
$scope module cnt_h $end
$var wire 1 ! clk $end
$var wire 1 a res $end
$var wire 1 b ovr $end
$var wire 1 * en $end
$var reg 1 @ cy $end
$var reg 4 c out [3:0] $end
$upscope $end
$scope module cnt_hh $end
$var wire 1 ! clk $end
$var wire 1 @ en $end
$var wire 1 d res $end
$var wire 1 e ovr $end
$var reg 1 = cy $end
$var reg 2 f out [1:0] $end
$upscope $end
$scope module cnt_m $end
$var wire 1 ! clk $end
$var wire 1 " en $end
$var wire 1 g res $end
$var wire 1 h ovr $end
$var reg 1 , cy $end
$var reg 4 i out [3:0] $end
$upscope $end
$scope module cnt_mm $end
$var wire 1 ! clk $end
$var wire 1 , en $end
$var wire 1 j res $end
$var wire 1 k ovr $end
$var reg 1 * cy $end
$var reg 3 l out [2:0] $end
$upscope $end
$scope module sseg_h $end
$var wire 4 m sin [3:0] $end
$var wire 7 n sout [6:0] $end
$upscope $end
$scope module sseg_hh $end
$var wire 4 o sin [3:0] $end
$var wire 7 p sout [6:0] $end
$upscope $end
$scope module sseg_m $end
$var wire 4 q sin [3:0] $end
$var wire 7 r sout [6:0] $end
$upscope $end
$scope module sseg_mm $end
$var wire 4 s sin [3:0] $end
$var wire 7 t sout [6:0] $end
$upscope $end
$upscope $end
$upscope $end
$enddefinitions $end
#0
$dumpvars
b111111 t
b0 s
b111111 r
b0 q
b111111 p
b0 o
b111111 n
b0 m
b0 l
0k
zj
b0 i
0h
zg
b0 f
0e
0d
b0 c
0b
0a
x`
b0 _
1^
1]
1\
1[
1Z
1Y
1X
1W
1V
1U
1T
1S
1R
1Q
1P
1O
0N
1M
1L
1K
1J
1I
1H
1G
1F
0E
0D
0C
0B
b0 A
0@
0?
b0 >
0=
1<
1;
1:
19
08
17
16
15
14
13
02
01
00
0/
0.
b0 -
0,
b0 +
0*
b111111 )
b111111 (
b111111 '
b111111 &
0%
0$
1#
0"
0!
$end
#10
1/
0<
18
05
0#
1.
b1 _
0`
1!
#20
0!
#30
0/
1<
08
15
1#
0.
b10 _
1!
#40
0!
#50
1/
0<
18
05
0#
1.
b11 _
1!
#60
0!
#70
0/
1<
08
15
1#
0.
b100 _
1!
#80
0!
#90
1/
0<
18
05
0#
1.
b101 _
1!
#100
0!
#110
0/
1<
08
15
1#
0.
b110 _
1!
#120
0!
#130
1/
0<
18
05
0#
1.
b111 _
1!
#140
0!
#150
1%
1"
0/
1<
08
15
1#
1N
0.
b1000 _
1!
#160
0!
#170
03
06
04
0F
0J
0O
0[
1/
0<
18
05
0#
0%
0"
b110 '
b110 r
1.
b1 -
b1 i
b1 q
b1001 _
1`
1!
#180
0!
#190
0/
1<
08
16
15
14
1#
0.
b1010 _
1!
#200
0!
#210
1/
0<
18
06
05
04
0#
1.
b1011 _
1!
#220
0!
#230
0/
1<
08
16
15
14
1#
0.
b1100 _
1!
#240
0!
#250
1/
0<
18
06
05
04
0#
1.
b1101 _
1!
#260
0!
#270
0/
1<
08
16
15
14
1#
0.
b1110 _
1!
#280
0!
#290
1/
0<
18
06
05
04
0#
1.
b1111 _
1!
#300
0!
#310
0/
1<
08
16
15
14
1#
0N
0.
b10000 _
1!
#320
0!
#330
1/
0<
18
06
05
04
0#
1.
b10001 _
0`
1!
#340
0!
#350
0/
1<
08
16
15
14
1#
0.
b10010 _
1!
#360
0!
#370
1/
0<
18
06
05
04
0#
1.
b10011 _
1!
#380
0!
#390
0/
1<
08
16
15
14
1#
0.
b10100 _
1!
#400
0!
#410
1/
0<
18
06
05
04
0#
1.
b10101 _
1!
#420
0!
#430
0/
1<
08
16
15
14
1#
0.
b10110 _
1!
#440
0!
#450
1/
0<
18
06
05
04
0#
1.
b10111 _
1!
#460
0!
#470
1%
1"
0/
1<
08
16
15
14
1#
1N
0.
b11000 _
1!
#480
0!
#490
1B
1J
1O
0S
1[
b1011011 '
b1011011 r
1/
0<
18
16
15
14
0#
0%
0"
1.
b10 -
b10 i
b10 q
b11001 _
1`
1!
#500
0!
#510
0/
1<
08
04
13
1#
0.
b11010 _
1!
#520
0!
#530
1/
0<
18
14
03
0#
1.
b11011 _
1!
#540
0!
#550
0/
1<
08
04
13
1#
0.
b11100 _
1!
#560
0!
#570
1/
0<
18
14
03
0#
1.
b11101 _
1!
#580
0!
#590
0/
1<
08
04
13
1#
0.
b11110 _
1!
#600
0!
#610
1/
0<
18
14
03
0#
1.
b11111 _
1!
#620
0!
#630
0/
1<
08
04
13
1#
0N
0.
b100000 _
1!
#640
0!
#650
1/
0<
18
14
03
0#
1.
b100001 _
0`
1!
#660
0!
#670
0/
1<
08
04
13
1#
0.
b100010 _
1!
#680
0!
#690
1/
0<
18
14
03
0#
1.
b100011 _
1!
#700
0!
#710
0/
1<
08
04
13
1#
0.
b100100 _
1!
#720
0!
#730
1/
0<
18
14
03
0#
1.
b100101 _
1!
#740
0!
#750
0/
1<
08
04
13
1#
0.
b100110 _
1!
#760
0!
#770
1/
0<
18
14
03
0#
1.
b100111 _
1!
#780
0!
#790
1%
1"
0/
1<
08
04
13
1#
1N
0.
b101000 _
1!
#800
0!
#810
06
0J
1S
b1001111 '
b1001111 r
1/
0<
18
14
03
0#
0%
0"
1.
b11 -
b11 i
b11 q
b101001 _
1`
1!
#820
0!
#830
0/
1<
08
16
13
1#
0.
b101010 _
1!
#840
0!
#850
1/
0<
18
06
03
0#
1.
b101011 _
1!
#860
0!
#870
0/
1<
08
16
13
1#
0.
b101100 _
1!
#880
0!
#890
1/
0<
18
06
03
0#
1.
b101101 _
1!
#900
0!
#910
0/
1<
08
16
13
1#
0.
b101110 _
1!
#920
0!
#930
1/
0<
18
06
03
0#
1.
b101111 _
1!
#940
0!
#950
0/
1<
08
16
13
1#
0N
0.
b110000 _
1!
#960
0!
#970
1/
0<
18
06
03
0#
1.
b110001 _
0`
1!
#980
0!
#990
0/
1<
08
16
13
1#
0.
b110010 _
1!
#1000
0!
#1010
1/
0<
18
06
03
0#
1.
b110011 _
1!
#1020
0!
#1030
0/
1<
08
16
13
1#
0.
b110100 _
1!
#1040
0!
#1050
1/
0<
18
06
03
0#
1.
b110101 _
1!
#1060
0!
#1070
0/
1<
08
16
13
1#
0.
b110110 _
1!
#1080
0!
#1090
1/
0<
18
06
03
0#
1.
b110111 _
1!
#1100
0!
#1110
1%
1"
0/
1<
08
16
13
1#
1N
0.
b111000 _
1!
#1120
0!
#1130
04
1F
0O
0[
b1100110 '
b1100110 r
1/
0<
18
06
13
0#
0%
0"
1.
b100 -
b100 i
b100 q
b111001 _
1`
1!
#1140
0!
#1150
0/
1<
08
16
14
03
1#
0.
b111010 _
1!
#1160
0!
#1170
1/
0<
18
06
04
13
0#
1.
b111011 _
1!
#1180
0!
#1190
0/
1<
08
16
14
03
1#
0.
b111100 _
1!
#1200
0!
#1210
1/
0<
18
06
04
13
0#
1.
b111101 _
1!
#1220
0!
#1230
0/
1<
08
16
14
03
1#
0.
b111110 _
1!
#1240
0!
#1250
1/
0<
18
06
04
13
0#
1.
b111111 _
1!
#1260
0!
#1270
0/
1<
08
16
14
03
1#
0N
0.
b1000000 _
1!
#1280
0!
#1290
1/
0<
18
06
04
13
0#
1.
b1000001 _
0`
1!
#1300
0!
#1310
0/
1<
08
16
14
03
1#
0.
b1000010 _
1!
#1320
0!
#1330
1/
0<
18
06
04
13
0#
1.
b1000011 _
1!
#1340
0!
#1350
0/
1<
08
16
14
03
1#
0.
b1000100 _
1!
#1360
0!
#1370
1/
0<
18
06
04
13
0#
1.
b1000101 _
1!
#1380
0!
#1390
0/
1<
08
16
14
03
1#
0.
b1000110 _
1!
#1400
0!
#1410
1/
0<
18
06
04
13
0#
1.
b1000111 _
1!
#1420
0!
#1430
1%
1"
0/
1<
08
16
14
03
1#
1N
0.
b1001000 _
1!
#1440
0!
#1450
1O
0W
1[
b1101101 '
b1101101 r
1/
0<
18
06
14
13
0#
0%
0"
1.
b101 -
b101 i
b101 q
b1001001 _
1`
1!
#1460
0!
#1470
0/
1<
08
16
05
1#
0.
b1001010 _
1!
#1480
0!
#1490
1/
0<
18
06
15
0#
1.
b1001011 _
1!
#1500
0!
#1510
0/
1<
08
16
05
1#
0.
b1001100 _
1!
#1520
0!
#1530
1/
0<
18
06
15
0#
1.
b1001101 _
1!
#1540
0!
#1550
0/
1<
08
16
05
1#
0.
b1001110 _
1!
#1560
0!
#1570
1/
0<
18
06
15
0#
1.
b1001111 _
1!
#1580
0!
#1590
0/
1<
08
16
05
1#
0N
0.
b1010000 _
1!
#1600
0!
#1610
1/
0<
18
06
15
0#
1.
b1010001 _
0`
1!
#1620
0!
#1630
0/
1<
08
16
05
1#
0.
b1010010 _
1!
#1640
0!
#1650
1/
0<
18
06
15
0#
1.
b1010011 _
1!
#1660
0!
#1670
0/
1<
08
16
05
1#
0.
b1010100 _
1!
#1680
0!
#1690
1/
0<
18
06
15
0#
1.
b1010101 _
1!
#1700
0!
#1710
0/
1<
08
16
05
1#
0.
b1010110 _
1!
#1720
0!
#1730
1/
0<
18
06
15
0#
1.
b1010111 _
1!
#1740
0!
#1750
1%
1"
0/
1<
08
16
05
1#
1N
0.
b1011000 _
1!
#1760
0!
#1770
1J
b1111101 '
b1111101 r
1/
0<
18
16
15
0#
0%
0"
1.
b110 -
b110 i
b110 q
b1011001 _
1`
1!
#1780
0!
#1790
0/
1<
08
05
1#
0.
b1011010 _
1!
#1800
0!
#1810
1/
0<
18
15
0#
1.
b1011011 _
1!
#1820
0!
#1830
0/
1<
08
05
1#
0.
b1011100 _
1!
#1840
0!
#1850
1/
0<
18
15
0#
1.
b1011101 _
1!
#1860
0!
#1870
0/
1<
08
05
1#
0.
b1011110 _
1!
#1880
0!
#1890
1/
0<
18
15
0#
1.
b1011111 _
1!
#1900
0!
#1910
0/
1<
08
05
1#
0N
0.
b1100000 _
1!
#1920
0!
#1930
1/
0<
18
15
0#
1.
b1100001 _
0`
1!
#1940
0!
#1950
0/
1<
08
05
1#
0.
b1100010 _
1!
#1960
0!
#1970
1/
0<
18
15
0#
1.
b1100011 _
1!
#1980
0!
#1990
0/
1<
08
05
1#
0.
b1100100 _
1!
#2000
0!
#2010
1/
0<
18
15
0#
1.
b1100101 _
1!
#2020
0!
#2030
0/
1<
08
05
1#
0.
b1100110 _
1!
#2040
0!
#2050
1/
0<
18
15
0#
1.
b1100111 _
1!
#2060
0!
#2070
1%
1"
0/
1<
08
05
1#
1N
0.
b1101000 _
1!
#2080
0!
#2090
03
06
04
0B
0F
0J
0O
1W
b111 '
b111 r
1/
0<
18
05
0#
0%
0"
1.
b111 -
b111 i
b111 q
b1101001 _
1`
1!
#2100
0!
#2110
0/
1<
08
16
15
14
13
1#
0.
b1101010 _
1!
#2120
0!
#2130
1/
0<
18
06
05
04
03
0#
1.
b1101011 _
1!
#2140
0!
#2150
0/
1<
08
16
15
14
13
1#
0.
b1101100 _
1!
#2160
0!
#2170
1/
0<
18
06
05
04
03
0#
1.
b1101101 _
1!
#2180
0!
#2190
0/
1<
08
16
15
14
13
1#
0.
b1101110 _
1!
#2200
0!
#2210
1/
0<
18
06
05
04
03
0#
1.
b1101111 _
1!
#2220
0!
#2230
0/
1<
08
16
15
14
13
1#
0N
0.
b1110000 _
1!
#2240
0!
#2250
1/
0<
18
06
05
04
03
0#
1.
b1110001 _
0`
1!
#2260
0!
#2270
0/
1<
08
16
15
14
13
1#
0.
b1110010 _
1!
#2280
0!
#2290
1/
0<
18
06
05
04
03
0#
1.
b1110011 _
1!
#2300
0!
#2310
0/
1<
08
16
15
14
13
1#
0.
b1110100 _
1!
#2320
0!
#2330
1/
0<
18
06
05
04
03
0#
1.
b1110101 _
1!
#2340
0!
#2350
0/
1<
08
16
15
14
13
1#
0.
b1110110 _
1!
#2360
0!
#2370
1/
0<
18
06
05
04
03
0#
1.
b1110111 _
1!
#2380
0!
#2390
1%
1"
0/
1<
08
16
15
14
13
1#
1N
0.
b1111000 _
1!
#2400
0!
#2410
1B
1F
1J
1O
b1111111 '
b1111111 r
1/
0<
18
16
15
14
13
0#
0%
0"
1.
b1000 -
b1000 i
b1000 q
b1111001 _
1`
1!
#2420
0!
#2430
0/
1<
08
1#
0.
b1111010 _
1!
#2440
0!
#2450
1/
0<
18
0#
1.
b1111011 _
1!
#2460
0!
#2470
0/
1<
08
1#
0.
b1111100 _
1!
#2480
0!
#2490
1/
0<
18
0#
1.
b1111101 _
1!
#2500
0!
#2510
0/
1<
08
1#
0.
b1111110 _
1!
#2520
0!
#2530
1/
0<
18
0#
1.
b1111111 _
1!
#2540
0!
#2550
0/
1<
08
1#
0N
0.
b10000000 _
1!
#2560
0!
#2570
1/
0<
18
0#
1.
b10000001 _
0`
1!
#2580
0!
#2590
0/
1<
08
1#
0.
b10000010 _
1!
#2600
0!
#2610
1/
0<
18
0#
1.
b10000011 _
1!
#2620
0!
#2630
0/
1<
08
1#
0.
b10000100 _
1!
#2640
0!
#2650
1/
0<
18
0#
1.
b10000101 _
1!
#2660
0!
#2670
0/
1<
08
1#
0.
b10000110 _
1!
#2680
0!
#2690
1/
0<
18
0#
1.
b10000111 _
1!
#2700
0!
#2710
1%
1"
0/
1<
08
1#
1N
0.
b10001000 _
1!
#2720
0!
#2730
06
0J
b1101111 '
b1101111 r
1/
0<
18
0#
0%
0"
1.
b1001 -
b1001 i
b1001 q
b10001001 _
1`
1!
#2740
0!
#2750
0/
1<
08
16
1#
0.
b10001010 _
1!
#2760
0!
#2770
1/
0<
18
06
0#
1.
b10001011 _
1!
#2780
0!
#2790
0/
1<
08
16
1#
0.
b10001100 _
1!
#2800
0!
#2810
1/
0<
18
06
0#
1.
b10001101 _
1!
#2820
0!
#2830
0/
1<
08
16
1#
0.
b10001110 _
1!
#2840
0!
#2850
1/
0<
18
06
0#
1.
b10001111 _
1!
#2860
0!
#2870
0/
1<
08
16
1#
0N
0.
b10010000 _
1!
#2880
0!
#2890
1/
0<
18
06
0#
1.
b10010001 _
0`
1!
#2900
0!
#2910
0/
1<
08
16
1#
0.
b10010010 _
1!
#2920
0!
#2930
1/
0<
18
06
0#
1.
b10010011 _
1!
#2940
0!
#2950
0/
1<
08
16
1#
0.
b10010100 _
1!
#2960
0!
#2970
1/
0<
18
06
0#
1.
b10010101 _
1!
#2980
0!
#2990
0/
1<
08
16
1#
0.
b10010110 _
1!
#3000
0!
#3010
1/
0<
18
06
0#
1.
b10010111 _
1!
#3020
0!
#3030
1%
1"
0/
1<
08
16
1#
1N
0.
b10011000 _
1!
#3040
0!
#3050
05
03
04
0B
0F
0O
0S
0W
0[
b0 '
b0 r
1/
0<
18
06
0#
0%
0"
1.
1h
b1010 -
b1010 i
b1010 q
b10011001 _
1`
1!
#3060
0!
#3070
0/
1<
08
16
15
14
13
1#
1F
1J
1O
1S
1W
1[
0.
b111111 '
b111111 r
b10011010 _
1,
0h
b0 -
b0 i
b0 q
1!
#3080
0!
#3090
09
0G
0K
0P
0\
1/
0<
18
05
0#
b110 &
b110 t
1.
0,
b1 +
b1 s
b1 l
b10011011 _
1!
#3100
0!
#3110
0/
1<
08
07
06
15
1#
0.
b10011100 _
1!
#3120
0!
#3130
1/
0<
18
17
16
05
0#
1.
b10011101 _
1!
#3140
0!
#3150
0/
1<
08
07
06
15
1#
0.
b10011110 _
1!
#3160
0!
#3170
1/
0<
18
17
16
05
0#
1.
b10011111 _
1!
#3180
0!
#3190
0/
1<
08
07
06
15
1#
0N
0.
b10100000 _
1!
#3200
0!
#3210
1/
0<
18
17
16
05
0#
1.
b10100001 _
0`
1!
#3220
0!
#3230
0/
1<
08
07
06
15
1#
0.
b10100010 _
1!
#3240
0!
#3250
1/
0<
18
17
16
05
0#
1.
b10100011 _
1!
#3260
0!
#3270
0/
1<
08
07
06
15
1#
0.
b10100100 _
1!
#3280
0!
#3290
1/
0<
18
17
16
05
0#
1.
b10100101 _
1!
#3300
0!
#3310
0/
1<
08
07
06
15
1#
0.
b10100110 _
1!
#3320
0!
#3330
1/
0<
18
17
16
05
0#
1.
b10100111 _
1!
#3340
0!
#3350
1%
1"
0/
1<
08
07
06
15
1#
1N
0.
b10101000 _
1!
#3360
0!
#3370
03
04
0F
0J
0O
0[
1/
0<
18
17
06
05
0#
0%
0"
b110 '
b110 r
1.
b1 -
b1 i
b1 q
b10101001 _
1`
1!
#3380
0!
#3390
0/
1<
08
07
15
14
1#
0.
b10101010 _
1!
#3400
0!
#3410
1/
0<
18
17
05
04
0#
1.
b10101011 _
1!
#3420
0!
#3430
0/
1<
08
07
15
14
1#
0.
b10101100 _
1!
#3440
0!
#3450
1/
0<
18
17
05
04
0#
1.
b10101101 _
1!
#3460
0!
#3470
0/
1<
08
07
15
14
1#
0.
b10101110 _
1!
#3480
0!
#3490
1/
0<
18
17
05
04
0#
1.
b10101111 _
1!
#3500
0!
#3510
0/
1<
08
07
15
14
1#
0N
0.
b10110000 _
1!
#3520
0!
#3530
1/
0<
18
17
05
04
0#
1.
b10110001 _
0`
1!
#3540
0!
#3550
0/
1<
08
07
15
14
1#
0.
b10110010 _
1!
#3560
0!
#3570
1/
0<
18
17
05
04
0#
1.
b10110011 _
1!
#3580
0!
#3590
0/
1<
08
07
15
14
1#
0.
b10110100 _
1!
#3600
0!
#3610
1/
0<
18
17
05
04
0#
1.
b10110101 _
1!
#3620
0!
#3630
0/
1<
08
07
15
14
1#
0.
b10110110 _
1!
#3640
0!
#3650
1/
0<
18
17
05
04
0#
1.
b10110111 _
1!
#3660
0!
#3670
1%
1"
0/
1<
08
07
15
14
1#
1N
0.
b10111000 _
1!
#3680
0!
#3690
16
1B
1J
1O
0S
1[
b1011011 '
b1011011 r
1/
0<
18
17
15
14
0#
0%
0"
1.
b10 -
b10 i
b10 q
b10111001 _
1`
1!
#3700
0!
#3710
0/
1<
08
07
06
04
13
1#
0.
b10111010 _
1!
#3720
0!
#3730
1/
0<
18
17
16
14
03
0#
1.
b10111011 _
1!
#3740
0!
#3750
0/
1<
08
07
06
04
13
1#
0.
b10111100 _
1!
#3760
0!
#3770
1/
0<
18
17
16
14
03
0#
1.
b10111101 _
1!
#3780
0!
#3790
0/
1<
08
07
06
04
13
1#
0.
b10111110 _
1!
#3800
0!
#3810
1/
0<
18
17
16
14
03
0#
1.
b10111111 _
1!
#3820
0!
#3830
0/
1<
08
07
06
04
13
1#
0N
0.
b11000000 _
1!
#3840
0!
#3850
1/
0<
18
17
16
14
03
0#
1.
b11000001 _
0`
1!
#3860
0!
#3870
0/
1<
08
07
06
04
13
1#
0.
b11000010 _
1!
#3880
0!
#3890
1/
0<
18
17
16
14
03
0#
1.
b11000011 _
1!
#3900
0!
#3910
0/
1<
08
07
06
04
13
1#
0.
b11000100 _
1!
#3920
0!
#3930
1/
0<
18
17
16
14
03
0#
1.
b11000101 _
1!
#3940
0!
#3950
0/
1<
08
07
06
04
13
1#
0.
b11000110 _
1!
#3960
0!
#3970
1/
0<
18
17
16
14
03
0#
1.
b11000111 _
1!
#3980
0!
#3990
1%
1"
0/
1<
08
07
06
04
13
1#
1N
0.
b11001000 _
1!
#4000
0!
#4010
0J
1S
b1001111 '
b1001111 r
1/
0<
18
17
06
14
03
0#
0%
0"
1.
b11 -
b11 i
b11 q
b11001001 _
1`
1!
#4020
0!
#4030
0/
1<
08
07
13
1#
0.
b11001010 _
1!
#4040
0!
#4050
1/
0<
18
17
03
0#
1.
b11001011 _
1!
#4060
0!
#4070
0/
1<
08
07
13
1#
0.
b11001100 _
1!
#4080
0!
#4090
1/
0<
18
17
03
0#
1.
b11001101 _
1!
#4100
0!
#4110
0/
1<
08
07
13
1#
0.
b11001110 _
1!
#4120
0!
#4130
1/
0<
18
17
03
0#
1.
b11001111 _
1!
#4140
0!
#4150
0/
1<
08
07
13
1#
0N
0.
b11010000 _
1!
#4160
0!
#4170
1/
0<
18
17
03
0#
1.
b11010001 _
0`
1!
#4180
0!
#4190
0/
1<
08
07
13
1#
0.
b11010010 _
1!
#4200
0!
#4210
1/
0<
18
17
03
0#
1.
b11010011 _
1!
#4220
0!
#4230
0/
1<
08
07
13
1#
0.
b11010100 _
1!
#4240
0!
#4250
1/
0<
18
17
03
0#
1.
b11010101 _
1!
#4260
0!
#4270
0/
1<
08
07
13
1#
0.
b11010110 _
1!
#4280
0!
#4290
1/
0<
18
17
03
0#
1.
b11010111 _
1!
#4300
0!
#4310
1%
1"
0/
1<
08
07
13
1#
1N
0.
b11011000 _
1!
#4320
0!
#4330
04
1F
0O
0[
b1100110 '
b1100110 r
1/
0<
18
17
13
0#
0%
0"
1.
b100 -
b100 i
b100 q
b11011001 _
1`
1!
#4340
0!
#4350
0/
1<
08
07
14
03
1#
0.
b11011010 _
1!
#4360
0!
#4370
1/
0<
18
17
04
13
0#
1.
b11011011 _
1!
#4380
0!
#4390
0/
1<
08
07
14
03
1#
0.
b11011100 _
1!
#4400
0!
#4410
1/
0<
18
17
04
13
0#
1.
b11011101 _
1!
#4420
0!
#4430
0/
1<
08
07
14
03
1#
0.
b11011110 _
1!
#4440
0!
#4450
1/
0<
18
17
04
13
0#
1.
b11011111 _
1!
#4460
0!
#4470
0/
1<
08
07
14
03
1#
0N
0.
b11100000 _
1!
#4480
0!
#4490
1/
0<
18
17
04
13
0#
1.
b11100001 _
0`
1!
#4500
0!
#4510
0/
1<
08
07
14
03
1#
0.
b11100010 _
1!
#4520
0!
#4530
1/
0<
18
17
04
13
0#
1.
b11100011 _
1!
#4540
0!
#4550
0/
1<
08
07
14
03
1#
0.
b11100100 _
1!
#4560
0!
#4570
1/
0<
18
17
04
13
0#
1.
b11100101 _
1!
#4580
0!
#4590
0/
1<
08
07
14
03
1#
0.
b11100110 _
1!
#4600
0!
#4610
1/
0<
18
17
04
13
0#
1.
b11100111 _
1!
#4620
0!
#4630
1%
1"
0/
1<
08
07
14
03
1#
1N
0.
b11101000 _
1!
#4640
0!
#4650
1O
0W
1[
b1101101 '
b1101101 r
1/
0<
18
17
14
13
0#
0%
0"
1.
b101 -
b101 i
b101 q
b11101001 _
1`
1!
#4660
0!
#4670
0/
1<
08
07
05
1#
0.
b11101010 _
1!
#4680
0!
#4690
1/
0<
18
17
15
0#
1.
b11101011 _
1!
#4700
0!
#4710
0/
1<
08
07
05
1#
0.
b11101100 _
1!
#4720
0!
#4730
1/
0<
18
17
15
0#
1.
b11101101 _
1!
#4740
0!
#4750
0/
1<
08
07
05
1#
0.
b11101110 _
1!
#4760
0!
#4770
1/
0<
18
17
15
0#
1.
b11101111 _
1!
#4780
0!
#4790
0/
1<
08
07
05
1#
0N
0.
b11110000 _
1!
#4800
0!
#4810
1/
0<
18
17
15
0#
1.
b11110001 _
0`
1!
#4820
0!
#4830
0/
1<
08
07
05
1#
0.
b11110010 _
1!
#4840
0!
#4850
1/
0<
18
17
15
0#
1.
b11110011 _
1!
#4860
0!
#4870
0/
1<
08
07
05
1#
0.
b11110100 _
1!
#4880
0!
#4890
1/
0<
18
17
15
0#
1.
b11110101 _
1!
#4900
0!
#4910
0/
1<
08
07
05
1#
0.
b11110110 _
1!
#4920
0!
#4930
1/
0<
18
17
15
0#
1.
b11110111 _
1!
#4940
0!
#4950
1%
1"
0/
1<
08
07
05
1#
1N
0.
b11111000 _
1!
#4960
0!
#4970
16
1J
b1111101 '
b1111101 r
1/
0<
18
17
15
0#
0%
0"
1.
b110 -
b110 i
b110 q
b11111001 _
1`
1!
#4980
0!
#4990
0/
1<
08
07
06
05
1#
0.
b11111010 _
1!
#5000
0!
#5010
1/
0<
18
17
16
15
0#
1.
b11111011 _
1!
#5020
0!
#5030
0/
1<
08
07
06
05
1#
0.
b11111100 _
1!
#5040
0!
#5050
1/
0<
18
17
16
15
0#
1.
b11111101 _
1!
#5060
0!
#5070
0/
1<
08
07
06
05
1#
0.
b11111110 _
1!
#5080
0!
#5090
1/
0<
18
17
16
15
0#
1.
b11111111 _
1!
#5100
0!
#5110
0/
1<
08
07
06
05
1#
0N
0.
b100000000 _
1!
#5120
0!
#5130
1/
0<
18
17
16
15
0#
1.
b100000001 _
0`
1!
#5140
0!
#5150
0/
1<
08
07
06
05
1#
0.
b100000010 _
1!
#5160
0!
#5170
1/
0<
18
17
16
15
0#
1.
b100000011 _
1!
#5180
0!
#5190
0/
1<
08
07
06
05
1#
0.
b100000100 _
1!
#5200
0!
#5210
1/
0<
18
17
16
15
0#
1.
b100000101 _
1!
#5220
0!
#5230
0/
1<
08
07
06
05
1#
0.
b100000110 _
1!
#5240
0!
#5250
1/
0<
18
17
16
15
0#
1.
b100000111 _
1!
#5260
0!
#5270
1%
1"
0/
1<
08
07
06
05
1#
1N
0.
b100001000 _
1!
#5280
0!
#5290
03
04
0B
0F
0J
0O
1W
b111 '
b111 r
1/
0<
18
17
06
05
0#
0%
0"
1.
b111 -
b111 i
b111 q
b100001001 _
1`
1!
#5300
0!
#5310
0/
1<
08
07
15
14
13
1#
0.
b100001010 _
1!
#5320
0!
#5330
1/
0<
18
17
05
04
03
0#
1.
b100001011 _
1!
#5340
0!
#5350
0/
1<
08
07
15
14
13
1#
0.
b100001100 _
1!
#5360
0!
#5370
1/
0<
18
17
05
04
03
0#
1.
b100001101 _
1!
#5380
0!
#5390
0/
1<
08
07
15
14
13
1#
0.
b100001110 _
1!
#5400
0!
#5410
1/
0<
18
17
05
04
03
0#
1.
b100001111 _
1!
#5420
0!
#5430
0/
1<
08
07
15
14
13
1#
0N
0.
b100010000 _
1!
#5440
0!
#5450
1/
0<
18
17
05
04
03
0#
1.
b100010001 _
0`
1!
#5460
0!
#5470
0/
1<
08
07
15
14
13
1#
0.
b100010010 _
1!
#5480
0!
#5490
1/
0<
18
17
05
04
03
0#
1.
b100010011 _
1!
#5500
0!
#5510
0/
1<
08
07
15
14
13
1#
0.
b100010100 _
1!
#5520
0!
#5530
1/
0<
18
17
05
04
03
0#
1.
b100010101 _
1!
#5540
0!
#5550
0/
1<
08
07
15
14
13
1#
0.
b100010110 _
1!
#5560
0!
#5570
1/
0<
18
17
05
04
03
0#
1.
b100010111 _
1!
#5580
0!
#5590
1%
1"
0/
1<
08
07
15
14
13
1#
1N
0.
b100011000 _
1!
#5600
0!
#5610
16
1B
1F
1J
1O
b1111111 '
b1111111 r
1/
0<
18
17
15
14
13
0#
0%
0"
1.
b1000 -
b1000 i
b1000 q
b100011001 _
1`
1!
#5620
0!
#5630
0/
1<
08
07
06
1#
0.
b100011010 _
1!
#5640
0!
#5650
1/
0<
18
17
16
0#
1.
b100011011 _
1!
#5660
0!
#5670
0/
1<
08
07
06
1#
0.
b100011100 _
1!
#5680
0!
#5690
1/
0<
18
17
16
0#
1.
b100011101 _
1!
#5700
0!
#5710
0/
1<
08
07
06
1#
0.
b100011110 _
1!
#5720
0!
#5730
1/
0<
18
17
16
0#
1.
b100011111 _
1!
#5740
0!
#5750
0/
1<
08
07
06
1#
0N
0.
b100100000 _
1!
#5760
0!
#5770
1/
0<
18
17
16
0#
1.
b100100001 _
0`
1!
#5780
0!
#5790
0/
1<
08
07
06
1#
0.
b100100010 _
1!
#5800
0!
#5810
1/
0<
18
17
16
0#
1.
b100100011 _
1!
#5820
0!
#5830
0/
1<
08
07
06
1#
0.
b100100100 _
1!
#5840
0!
#5850
1/
0<
18
17
16
0#
1.
b100100101 _
1!
#5860
0!
#5870
0/
1<
08
07
06
1#
0.
b100100110 _
1!
#5880
0!
#5890
1/
0<
18
17
16
0#
1.
b100100111 _
1!
#5900
0!
#5910
1%
1"
0/
1<
08
07
06
1#
1N
0.
b100101000 _
1!
#5920
0!
